{
  "data": {
    "content": [
      {
        "objectId": "879709096901607424",
        "title": "1",
        "content": "1",
        "court": "贵阳中院",
        "issuer": "任佳健",
        "issueTime": 1629780593000,
        "replyCount": 0,
        "commentCount": 0,
        "images": [
          "/content/image/L1RvcGljL2ltYWdlLzIwMjEwOC84Nzk3MDkwOTY5NDM1NTA0NjQ="
        ],
        "videos": []
      },
      {
        "objectId": "879708651755929600",
        "title": "1",
        "content": "1",
        "court": "贵阳中院",
        "issuer": "任佳健",
        "issueTime": 1629780487000,
        "replyCount": 0,
        "commentCount": 0,
        "images": [
          "/content/image/L1RvcGljL2ltYWdlLzIwMjEwOC84Nzk3MDg2NTE3OTc4NzI2NDA="
        ],
        "videos": []
      },
      {
        "objectId": "879707391082364928",
        "title": "111",
        "content": "111",
        "court": "贵阳中院",
        "issuer": "任佳健",
        "issueTime": 1629780186000,
        "replyCount": 0,
        "commentCount": 0,
        "images": [
          "/content/image/L1RvcGljL2ltYWdlLzIwMjEwOC84Nzk3MDczOTExMjQzMDc5Njg=",
          "/content/image/L1RvcGljL2ltYWdlLzIwMjEwOC84Nzk3MDczOTExMzI2OTY1Nzc=",
          "/content/image/L1RvcGljL2ltYWdlLzIwMjEwOC84Nzk3MDczOTExNDUyNzk0ODg=",
          "/content/image/L1RvcGljL2ltYWdlLzIwMjEwOC84Nzk3MDczOTExNDk0NzM3OTM=",
          "/content/image/L1RvcGljL2ltYWdlLzIwMjEwOC84Nzk3MDczOTExNjIwNTY3MDQ="
        ],
        "videos": []
      },
      {
        "objectId": "879706963141722112",
        "title": "传视频",
        "content": "视频",
        "court": "贵阳中院",
        "issuer": "任佳健",
        "issueTime": 1629780084000,
        "replyCount": 0,
        "commentCount": 0,
        "images": [],
        "videos": [
          {
            "filename": "wx_camera_1587468148328.mp4",
            "attachmentId": "879706963204636672",
            "url": "/content/video?id=879706963204636672"
          }
        ]
      },
      {
        "objectId": "879706714444660736",
        "title": "五张图",
        "content": "图",
        "court": "贵阳中院",
        "issuer": "任佳健",
        "issueTime": 1629780025000,
        "replyCount": 0,
        "commentCount": 0,
        "images": [],
        "videos": []
      },
      {
        "objectId": "879706407740375040",
        "title": "压缩",
        "content": "压",
        "court": "贵阳中院",
        "issuer": "任佳健",
        "issueTime": 1629779952000,
        "replyCount": 1,
        "commentCount": 1,
        "images": [
          "/content/image/L1RvcGljL2ltYWdlLzIwMjEwOC84Nzk3MDY0MDc3ODIzMTgwODA=",
          "/content/image/L1RvcGljL2ltYWdlLzIwMjEwOC84Nzk3MDY0MDc3OTA3MDY2ODk=",
          "/content/image/L1RvcGljL2ltYWdlLzIwMjEwOC84Nzk3MDY0MDc3OTkwOTUyOTc=",
          "/content/image/L1RvcGljL2ltYWdlLzIwMjEwOC84Nzk3MDY0MDc4MTE2NzgyMDg=",
          "/content/image/L1RvcGljL2ltYWdlLzIwMjEwOC84Nzk3MDY0MDc4MjAwNjY4MTY="
        ],
        "videos": []
      },
      {
        "objectId": "879699760187965440",
        "title": "图片",
        "content": "测试图片",
        "court": "贵阳中院",
        "issuer": "任佳健",
        "issueTime": 1629778367000,
        "replyCount": 1,
        "commentCount": 1,
        "images": [
          "/content/image/L1RvcGljL2ltYWdlLzIwMjEwOC84Nzk2OTk3NjAyMjk5MDg0ODA=",
          "/content/image/L1RvcGljL2ltYWdlLzIwMjEwOC84Nzk2OTk3NjAyNDY2ODU2OTY=",
          "/content/image/L1RvcGljL2ltYWdlLzIwMjEwOC84Nzk2OTk3NjAyNjc2NTcyMTY="
        ],
        "videos": []
      },
      {
        "objectId": "879694304300236800",
        "title": "请你吃烤鸭",
        "content": "北京的",
        "court": "贵阳中院",
        "issuer": "任佳健",
        "issueTime": 1629777066000,
        "replyCount": 0,
        "commentCount": 0,
        "images": [
          "/content/image/L1RvcGljL2ltYWdlLzIwMjEwOC84Nzk2OTQzMDQzNDIxNzk4NDA="
        ],
        "videos": []
      },
      {
        "objectId": "879693448486060032",
        "title": "不要穿太大的图片",
        "content": "现在没有开启压缩",
        "court": "贵阳中院",
        "issuer": "任佳健",
        "issueTime": 1629776862000,
        "replyCount": 1,
        "commentCount": 1,
        "images": [
          "/content/image/L1RvcGljL2ltYWdlLzIwMjEwOC84Nzk2OTM0NDg1MzYzOTE2ODA="
        ],
        "videos": []
      },
      {
        "objectId": "879691952499458048",
        "title": "云儿",
        "content": "云",
        "court": "贵阳中院",
        "issuer": "任佳健",
        "issueTime": 1629776505000,
        "replyCount": 1,
        "commentCount": 1,
        "images": [
          "/content/image/L1RvcGljL2ltYWdlLzIwMjEwOC84Nzk2OTE5NTI1NDU1OTUzOTI=",
          "/content/image/L1RvcGljL2ltYWdlLzIwMjEwOC84Nzk2OTE5NTI1NTM5ODQwMDE=",
          "/content/image/L1RvcGljL2ltYWdlLzIwMjEwOC84Nzk2OTE5NTI1NjIzNzI2MDk=",
          "/content/image/L1RvcGljL2ltYWdlLzIwMjEwOC84Nzk2OTE5NTI1NzA3NjEyMTY=",
          "/content/image/L1RvcGljL2ltYWdlLzIwMjEwOC84Nzk2OTE5NTI1NzkxNDk4MjQ="
        ],
        "videos": []
      }
    ],
    "pageable": {
      "sort": {
        "sorted": true,
        "unsorted": false,
        "empty": false
      },
      "pageNumber": 0,
      "offset": "0",
      "pageSize": 10,
      "unpaged": false,
      "paged": true
    },
    "totalElements": "44",
    "totalPages": 5,
    "last": false,
    "first": true,
    "sort": {
      "sorted": true,
      "unsorted": false,
      "empty": false
    },
    "size": 10,
    "number": 0,
    "numberOfElements": 10,
    "empty": false
  },
  "success": true
}
